module Kafka

go 1.21

require github.com/segmentio/kafka-go v0.4.42

require (
	github.com/golang/protobuf v1.5.3 // indirect
	github.com/nats-io/nats-server/v2 v2.9.21 // indirect
	github.com/nats-io/nkeys v0.4.4 // indirect
	github.com/nats-io/nuid v1.0.1 // indirect
	golang.org/x/crypto v0.11.0 // indirect
	golang.org/x/sys v0.10.0 // indirect
	google.golang.org/protobuf v1.31.0 // indirect
)

require (
	github.com/klauspost/compress v1.16.7 // indirect
	github.com/nats-io/nats.go v1.28.0
	github.com/pierrec/lz4/v4 v4.1.15 // indirect
)
